Soil Test Calibration in R • soiltestR
…
#> $CSTV90
#> [1] 4.478476
#> 
#> $n.90x2
#> [1] 7
#> 
#> $CSTV100
#> [1] 19.15054
#> 
#> $n.100
#> [1] 0
#> 
#> $Curve
#> $Curve[[1]]
#> # A tibble: 176 x 2
#>    RY.fitted STV.fitted
#>        <dbl>      <dbl>
#>  1      65         1.10
#>  2      65.2       1.11
#>  3      65.4       1.12
#>  4      65.6       1.13
#>  5      65.8       1.14
#>  6      66         1.15
#>  7      66.2       1.16
#>  8      66.4       1.17
#>  9      66.6       1.18
#> 10      66.8       1.20
#> # ... with 166 more rows
…
#> $CSTV90
#> [1] 23.25457
#> 
#> $n.90x2
#> [1] 22
#> 
#> $CSTV100
#> [1] 53.10299
#> 
#> $n.100
#> [1] 9
#> 
#> $Curve
#> $Curve[[1]]
#> # A tibble: 441 x 2
#>    RY.fitted STV.fitted
#>        <dbl>      <dbl>
#>  1      12         2.34
#>  2      12.2       2.36
#>  3      12.4       2.37
#>  4      12.6       2.39
#>  5      12.8       2.41
#>  6      13         2.43
#>  7      13.2       2.45
#>  8      13.4       2.47
#>  9      13.6       2.49
#> 10      13.8       2.50
#> # ... with 431 more rows
#> 
#> 
#> $SMA
#> $SMA[[1]]
#> # A tibble: 137 x 5
#>    ln_STV  arc_RY SMA_line residuals fitted_axis
#>     <dbl>   <dbl>    <dbl>     <dbl>       <dbl>
#>  1   1.39 -0.895     0.849     0.537      -0.911
#>  2   1.61 -0.474     1.93     -0.322       0.394
#>  3   1.79 -0.247     2.51     -0.721       1.16 
#>  4   1.79 -0.414     2.09     -0.293       0.730
#>  5   1.95 -0.0617    2.99     -1.04        1.79 
#>  6   1.95 -0.311     2.35     -0.402       1.15 
#>  7   2.20 -0.0163    3.10     -0.907       2.16 
#>  8   2.20 -0.103     2.88     -0.684       1.93 
#>  9   2.30 -0.154     2.75     -0.448       1.91 
#> 10   2.30 -0.142     2.78     -0.480       1.94 
#> # ... with 127 more rows
…
#> $CSTV90
#> [1] 76.89175
#> 
#> $n.90x2
#> [1] 2
#> 
#> $CSTV100
#> [1] 170.7629
#> 
#> $n.100
#> [1] 2
#> 
#> $Curve
#> $Curve[[1]]
#> # A tibble: 297 x 2
#>    RY.fitted STV.fitted
#>        <dbl>      <dbl>
#>  1      40.8       19.4
#>  2      41         19.5
#>  3      41.2       19.6
#>  4      41.4       19.7
#>  5      41.6       19.8
#>  6      41.8       19.9
#>  7      42         20.0
#>  8      42.2       20.1
#>  9      42.4       20.2
#> 10      42.6       20.3
#> # ... with 287 more rows
#> 
#> 
#> $SMA
#> $SMA[[1]]
#> # A tibble: 24 x 5
#>    ln_STV  arc_RY SMA_line residuals fitted_axis
#>     <dbl>   <dbl>    <dbl>     <dbl>       <dbl>
#>  1   3.26 -0.429      3.28   -0.0214        2.20
#>  2   3.33 -0.313      3.57   -0.233         2.56
#>  3   3.40 -0.332      3.52   -0.118         2.58
#>  4   3.43 -0.556      2.96    0.471         2.05
#>  5   3.53 -0.148      3.98   -0.449         3.16
#>  6   3.56 -0.255      3.71   -0.156         2.92
#>  7   3.69 -0.332      3.52    0.170         2.87
#>  8   3.78 -0.322      3.54    0.240         2.99
#>  9   3.89  0.0743     4.53   -0.635         4.08
#> 10   4.03  0.222      4.89   -0.867         4.57
#> # ... with 14 more rows
…
#> [[1]]$CSTV90
#> [1] 4.478476
#> 
#> [[1]]$n.90x2
#> [1] 7
#> 
#> [[1]]$CSTV100
#> [1] 19.15054
#> 
#> [[1]]$n.100
#> [1] 0
#> 
#> [[1]]$Curve
#> [[1]]$Curve[[1]]
#> # A tibble: 176 x 2
#>    RY.fitted STV.fitted
#>        <dbl>      <dbl>
#>  1      65         1.10
#>  2      65.2       1.11
#>  3      65.4       1.12
#>  4      65.6       1.13
#>  5      65.8       1.14
#>  6      66         1.15
#>  7      66.2       1.16
#>  8      66.4       1.17
#>  9      66.6       1.18
#> 10      66.8       1.20
#> # ... with 166 more rows
…
#> [[2]]$CSTV90
#> [1] 23.25457
#> 
#> [[2]]$n.90x2
#> [1] 22
#> 
#> [[2]]$CSTV100
#> [1] 53.10299
#> 
#> [[2]]$n.100
#> [1] 9
#> 
#> [[2]]$Curve
#> [[2]]$Curve[[1]]
#> # A tibble: 441 x 2
#>    RY.fitted STV.fitted
#>        <dbl>      <dbl>
#>  1      12         2.34
#>  2      12.2       2.36
#>  3      12.4       2.37
#>  4      12.6       2.39
#>  5      12.8       2.41
#>  6      13         2.43
#>  7      13.2       2.45
#>  8      13.4       2.47
#>  9      13.6       2.49
#> 10      13.8       2.50
#> # ... with 431 more rows
#> 
#> 
#> [[2]]$SMA
#> [[2]]$SMA[[1]]
#> # A tibble: 137 x 5
#>    ln_STV  arc_RY SMA_line residuals fitted_axis
#>     <dbl>   <dbl>    <dbl>     <dbl>       <dbl>
#>  1   1.39 -0.895     0.849     0.537      -0.911
#>  2   1.61 -0.474     1.93     -0.322       0.394
#>  3   1.79 -0.247     2.51     -0.721       1.16 
#>  4   1.79 -0.414     2.09     -0.293       0.730
#>  5   1.95 -0.0617    2.99     -1.04        1.79 
#>  6   1.95 -0.311     2.35     -0.402       1.15 
#>  7   2.20 -0.0163    3.10     -0.907       2.16 
#>  8   2.20 -0.103     2.88     -0.684       1.93 
#>  9   2.30 -0.154     2.75     -0.448       1.91 
#> 10   2.30 -0.142     2.78     -0.480       1.94 
#> # ... with 127 more rows
…
