Modified Arcsine-Log Calibration Curve — mod_alcc • soiltestcorr
…
#> $CSTV90
#> [1] 4.478476
#> 
#> $n.90x2
#> [1] 7
#> 
#> $CSTV100
#> [1] 19.15054
#> 
#> $n.100
#> [1] 0
#> 
#> $Curve
#> $Curve[[1]]
#> # A tibble: 176 × 2
#>    RY.fitted STV.fitted
#>        <dbl>      <dbl>
#>  1      65         1.10
#>  2      65.2       1.11
#>  3      65.4       1.12
#>  4      65.6       1.13
#>  5      65.8       1.14
#>  6      66         1.15
#>  7      66.2       1.16
#>  8      66.4       1.17
#>  9      66.6       1.18
#> 10      66.8       1.20
#> # … with 166 more rows
…
