Linear-plateau response • soiltestcorr
…
boot_lp <- boot_linear_plateau(data = data_1, 
                    ry = RY, target = 90,
                    stv = STV, n = 200)
#> Warning: There were 200 warnings in `dplyr::mutate()`.
#> The first warning was:
#> ℹ In argument: `model = map(...)`.
#> ℹ In group 1: `boot_id = 1`.
#> Caused by warning:
#> ! You have specified a relative yield target equal or greater than the CSTV for plateau. 
#>           The CSTV estimations have been changed for the plateau level
#> ℹ Run `dplyr::last_dplyr_warnings()` to see the 199 remaining warnings.

boot_lp %>% dplyr::slice_head(., n=5)
#> # A tibble: 200 × 15
#> # Groups:   boot_id [200]
#>    boot_id intercept slope equation plateau target  CSTV LL_cstv UL_cstv CI_type
#>      <dbl>     <dbl> <dbl> <chr>      <dbl>  <dbl> <dbl>   <dbl>   <dbl> <chr>  
#>  1       1      66.4  4.5  66.4 + …    98       90   7       5.7     8.3 Wald C…
#>  2       2      74.4  3.3  74.4 + …    96.5     90   6.7     5.8     7.6 Wald C…
#>  3       3      63.3  5.64 63.3 + …    97.7     90   6.1     5       7.2 Wald C…
#>  4       4      79.5  2.06 79.5 + …    98.1     90   9       7.4    10.7 Wald C…
#>  5       5      56   10    56 + 10…    96.3     90   4       3.5     4.5 Wald C…
#>  6       6      76.0  2.67 76 + 2.…    97.6     90   8.1     7       9.2 Wald C…
#>  7       7      60.9  5.19 60.9 + …    98.1     90   7.2     6.3     8   Wald C…
#>  8       8      64.1  4.78 64.1 + …    98.4     90   7.2     5.8     8.6 Wald C…
#>  9       9      66.2  4.28 66.2 + …    98.7     90   7.6     6.4     8.8 Wald C…
#> 10      10      75.7  2.83 75.7 + …    98.8     90   8.2     7.1     9.2 Wald C…
#> # … with 190 more rows, and 5 more variables: STVt <dbl>, AIC <dbl>,
#> #   AICc <dbl>, R2 <dbl>, pvalue <dbl>
…
