Modified ALCC • soiltestcorr
…
boot_alcc <- boot_mod_alcc(data = data_1, 
                    ry = RY, target = 90, confidence = 0.95,
                    stv = STV, n = 200)
#> Warning: There were 200 warnings in `dplyr::mutate()`.
#> The first warning was:
#> ℹ In argument: `model = map(...)`.
#> ℹ In group 1: `boot_id = 1`.
#> Caused by warning:
#> ! 7 STV points exceeded two-times (2x) 
#>   the CSTV for 90% of RY. Risk of leverage. You may consider a sensitivity analysis by 
#>   removing extreme points, re-run the mod_alcc(), and check results.
#> ℹ Run `dplyr::last_dplyr_warnings()` to see the 199 remaining warnings.

boot_alcc %>% dplyr::slice_head(., n=5)
#> # A tibble: 200 × 12
#> # Groups:   boot_id [200]
#>    boot_id     n     r target  CSTV    LL    UL confidence CSTV90 n.90x2 CSTV100
#>      <dbl> <int> <dbl>  <dbl> <dbl> <dbl> <dbl>      <dbl>  <dbl>  <int>   <dbl>
#>  1       1    15 0.967     90  4.22  3.66  4.86       0.95   4.22      7    15.8
#>  2       2    15 0.976     90  4.51  4.04  5.05       0.95   4.51      4    20.0
#>  3       3    15 0.951     90  4.46  3.73  5.31       0.95   4.46      9    17.9
#>  4       4    15 0.992     90  4.43  4.16  4.72       0.95   4.43      9    19.9
#>  5       5    15 0.968     90  4.53  4.12  4.97       0.95   4.53      3    20.3
#>  6       6    15 0.981     90  4.40  3.91  4.95       0.95   4.40      6    19.6
#>  7       7    15 0.970     90  4.24  3.77  4.78       0.95   4.24      6    17.6
#>  8       8    15 0.968     90  4.16  3.58  4.83       0.95   4.16      9    17.2
#>  9       9    15 0.938     90  4.65  4.00  5.41       0.95   4.65      6    16.1
#> 10      10    15 0.987     90  4.66  4.30  5.04       0.95   4.66      6    21.0
#> # … with 190 more rows, and 1 more variable: n.100 <int>
…
